%YAML 1.1
%TAG !u! tag:unity3d.com,2011:
--- !u!1045 &1
EditorBuildSettings:
  m_ObjectHideFlags: 0
  serializedVersion: 2
  m_Scenes:
  - enabled: 1
    path: Assets/Scenes/gedung baru.unity
    guid: d55cce6ee6c9dc64490d6b7ff7178dad
  - enabled: 1
    path: Assets/Scenes/gedung lama.unity
    guid: f634c7091302a22418ec6ad246ed0bbd
  - enabled: 1
    path: Assets/Scenes/UBDVirtualTour.unity
    guid: 61d17e0a5281a234e8011fdb93d0ad7c
  - enabled: 1
    path: Assets/Scenes/MainMenu.unity
    guid: 382e8b13d452df24795f6a9b16c9631c
  m_configObjects: {}
